Domain Name,Domain Type,Agency,City,State
18F.GOV,Federal Agency,General Services Administration,Washington,DC
ACQUISITION.GOV,Federal Agency,General Services Administration,Arlington,VA
AFADVANTAGE.GOV,Federal Agency,General Services Administration,Washington,DC
APP.GOV,Federal Agency,General Services Administration,Washington,DC
APPS.GOV,Federal Agency,General Services Administration,Washington,DC
BIDENTRANSITION.GOV,Federal Agency,General Services Administration,Washington,DC
BUSINESSUSA.GOV,Federal Agency,General Services Administration,Washington,DC
BUYACCESSIBLE.GOV,Federal Agency,General Services Administration,Washington,DC
CAO.GOV,Federal Agency,General Services Administration,Washington,DC
CBCA.GOV,Federal Agency,General Services Administration,Washington,DC
CFDA.GOV,Federal Agency,General Services Administration,Washington,DC
CFO.GOV,Federal Agency,General Services Administration,Washington,DC
CFOC.GOV,Federal Agency,General Services Administration,Washington,DC
CHALLENGE.GOV,Federal Agency,General Services Administration,Washington,DC
CHALLENGES.GOV,Federal Agency,General Services Administration,Washington,DC
CIO.GOV,Federal Agency,General Services Administration,Washington,DC
CITIZENSCIENCE.GOV,Federal Agency,General Services Administration,NW,DC
CLOUD.GOV,Federal Agency,General Services Administration,Washington,DC
COMPUTERSFORLEARNING.GOV,Federal Agency,General Services Administration,Arlington,VA
CONNECT.GOV,Federal Agency,General Services Administration,Washington,DC
CONSUMERACTION.GOV,Federal Agency,General Services Administration,Washington,DC
CONTRACTDIRECTORY.GOV,Federal Agency,General Services Administration,Arlington,VA
CPARS.GOV,Federal Agency,General Services Administration,Washington,DC
DATA.GOV,Federal Agency,General Services Administration,Washington,DC
DIGITAL.GOV,Federal Agency,General Services Administration,Washington D.C.,DC
DIGITALDASHBOARD.GOV,Federal Agency,General Services Administration,Washington,DC
DIGITALGOV.GOV,Federal Agency,General Services Administration,Washington,DC
DOTGOV.GOV,Federal Agency,General Services Administration,Fairfax,VA
EAC.GOV,Federal Agency,General Services Administration,Washington,DC
ECPIC.GOV,Federal Agency,General Services Administration,Washington,DC
EISENHOWERMEMORIAL.GOV,Federal Agency,General Services Administration,Washington,DC
ESRS.GOV,Federal Agency,General Services Administration,arlington,VA
EVERYKIDINAPARK.GOV,Federal Agency,General Services Administration,Washington DC,DC
FACA.GOV,Federal Agency,General Services Administration,Washington,DC
FACADATABASE.GOV,Federal Agency,General Services Administration,Washington,DC
FAI.GOV,Federal Agency,General Services Administration,Washington,DC
FAPIIS.GOV,Federal Agency,General Services Administration,Washington,DC
FAQ.GOV,Federal Agency,General Services Administration,Washington,DC
FBO.GOV,Federal Agency,General Services Administration,Arlington,VA
FED.US,Federal Agency,General Services Administration,Washington,DC
FEDBIZOPPS.GOV,Federal Agency,General Services Administration,Arlington,VA
FEDIDCARD.GOV,Federal Agency,General Services Administration,Washington,DC
FEDINFO.GOV,Federal Agency,General Services Administration,Washington,DC
FEDRAMP.GOV,Federal Agency,General Services Administration,Washington,DC
FEDROOMS.GOV,Federal Agency,General Services Administration,Arlington,VA
FIRSTGOV.GOV,Federal Agency,General Services Administration,Washington,DC
FMI.GOV,Federal Agency,General Services Administration,Washington,DC
FORMS.GOV,Federal Agency,General Services Administration,Washington,DC
FPC.GOV,Federal Agency,General Services Administration,Washington,DC
FPDS.GOV,Federal Agency,General Services Administration,Arlington,VA
FPISC.GOV,Federal Agency,General Services Administration,Washington,DC
FPKI-LAB.GOV,Federal Agency,General Services Administration,Washington,DC
FPKI.GOV,Federal Agency,General Services Administration,Washington,DC
FRPG.GOV,Federal Agency,General Services Administration,Washington,DC
FRPP-PA.GOV,Federal Agency,General Services Administration,WASHINGTON,DC
FSD.GOV,Federal Agency,General Services Administration,Arlington,VA
FSRS.GOV,Federal Agency,General Services Administration,Crystal City,VA
GOBIERNO.GOV,Federal Agency,General Services Administration,Washington,DC
GOBIERNOUSA.GOV,Federal Agency,General Services Administration,Washington,DC
GOVSALES.GOV,Federal Agency,General Services Administration,Arlington,VA
GSA.GOV,Federal Agency,General Services Administration,Washington,DC
GSAADVANTAGE.GOV,Federal Agency,General Services Administration,Washington,DC
GSAAUCTIONS.GOV,Federal Agency,General Services Administration,Washington,DC
GSAIG.GOV,Federal Agency,General Services Administration,Washington,DC
GSATEST1.GOV,Federal Agency,General Services Administration,Washington,DC
GSATEST2.GOV,Federal Agency,General Services Administration,Washington,DC
GSATEST3.GOV,Federal Agency,General Services Administration,Washington,DC
GSATEST4.GOV,Federal Agency,General Services Administration,Washington,DC
GSATEST5.GOV,Federal Agency,General Services Administration,Washington,DC
GSATESTNSN.GOV,Federal Agency,General Services Administration,Washington,DC
GSAXCESS.GOV,Federal Agency,General Services Administration,Arlington,VA
HOWTO.GOV,Federal Agency,General Services Administration,Washington,DC
IDENTITYSANDBOX.GOV,Federal Agency,General Services Administration,Washington,DC
IDMANAGEMENT.GOV,Federal Agency,General Services Administration,Washington,DC
INFO.GOV,Federal Agency,General Services Administration,Washington,DC
INNOVATION.GOV,Federal Agency,General Services Administration,NW,DC
KIDS.GOV,Federal Agency,General Services Administration,Washington,DC
LOGIN.GOV,Federal Agency,General Services Administration,Washington,DC
NBRC.GOV,Federal Agency,General Services Administration,Concord,NH
NETWORX.GOV,Federal Agency,General Services Administration,Fairfax,VA
NIC.GOV,Federal Agency,General Services Administration,Fairfax,VA
OBPR.GOV,Federal Agency,General Services Administration,Washington,DC
OVERSIGHTBOARDPR.GOV,Federal Agency,General Services Administration,Washington,DC
PCLOB.GOV,Federal Agency,General Services Administration,Washington,DC
PERFORMANCE.GOV,Federal Agency,General Services Administration,Washington,DC
PIC.GOV,Federal Agency,General Services Administration,Washington,DC
PIF.GOV,Federal Agency,General Services Administration,Washington,DC
PPIRS.GOV,Federal Agency,General Services Administration,Washington,DC
PRESIDENTIALINNOVATIONFELLOWS.GOV,Federal Agency,General Services Administration,Washington,DC
PRIVACY.GOV,Federal Agency,General Services Administration,Washington,DC
PROMESA.GOV,Federal Agency,General Services Administration,WASHINGTON,DC
PTT.GOV,Federal Agency,General Services Administration,Washington D.C.,DC
REALESTATESALES.GOV,Federal Agency,General Services Administration,Washington,DC
REALPROPERTYPROFILE.GOV,Federal Agency,General Services Administration,Washington,DC
REGINFO.GOV,Federal Agency,General Services Administration,Washington,DC
REPORTING.GOV,Federal Agency,General Services Administration,Washington,DC
ROCIS.GOV,Federal Agency,General Services Administration,Washington,DC
SAM.GOV,Federal Agency,General Services Administration,Arlington,VA
SANDBOX.GOV,Federal Agency,General Services Administration,Washinton,DC
SBST.GOV,Federal Agency,General Services Administration,Washington,DC
SEARCH.GOV,Federal Agency,General Services Administration,Washington,DC
SECTION508.GOV,Federal Agency,General Services Administration,Washington,DC
SFTOOL.GOV,Federal Agency,General Services Administration,Chicago,IL
STRATEGICSOURCING.GOV,Federal Agency,General Services Administration,Arlington,VA
UNITEDSTATES.GOV,Federal Agency,General Services Administration,Washington,DC
US.GOV,Federal Agency,General Services Administration,Washington,DC
USA.GOV,Federal Agency,General Services Administration,Washington,DC
USAGOV.GOV,Federal Agency,General Services Administration,Washington,DC
USCIRF.GOV,Federal Agency,General Services Administration,Washington,DC
USGOVERNMENT.GOV,Federal Agency,General Services Administration,Washington,DC
USIP.GOV,Federal Agency,General Services Administration,Washington,DC
USSM.GOV,Federal Agency,General Services Administration,Washington,DC
VEF.GOV,Federal Agency,General Services Administration,Arlington,VA
VOTE.GOV,Federal Agency,General Services Administration,Washington,DC
VOTEBYMAIL.GOV,Federal Agency,General Services Administration,SILVER SPRING,MD